…
What is happening here… And then we bring it out and show it as a tibble
so we can see the lists and dataframes.

They’re stored as ‘resample’ which is a way of storing rows of data that
is more efficient.

``` r
cv_df %>% pull(train) %>% .[[1]] %>% as_tibble()
```

    ## # A tibble: 79 x 3
    ##       id     x        y
    ##    <int> <dbl>    <dbl>
    ##  1     1 0.786 -1.62   
    ##  2     3 0.983 -3.55   
    ##  3     4 0.603 -0.359  
    ##  4     5 0.963 -3.44   
    ##  5     7 0.973 -3.80   
    ##  6     8 0.164  1.07   
    ##  7     9 0.436  0.799  
    ##  8    11 0.655  0.00452
    ##  9    12 0.464 -0.125  
    ## 10    13 0.171  0.917  
    ## # … with 69 more rows
…
